^E:\Bioinformatika\ZavrsniRefGit\VCPP_Sol\HiRGC\x64\Debug\HiRGC_MyImplementation.exe
E:\Bioinformatika\ZavrsniRefGit\VCPP_Sol\HiRGC\HiRGC_MyImplementation\x64\Debug\vcpkg.applocal.log
E:\Bioinformatika\ZavrsniRefGit\VCPP_Sol\HiRGC\x64\Debug\fmtd.dll
E:\Bioinformatika\ZavrsniRefGit\VCPP_Sol\HiRGC\x64\Debug\boost_program_options-vc142-mt-gd-x64-1_73.dll
^E:\Bioinformatika\ZavrsniRefGit\VCPP_Sol\HiRGC\x64\Debug\HiRGC_MyImplementation.exe
E:\Bioinformatika\ZavrsniRefGit\VCPP_Sol\HiRGC\HiRGC_MyImplementation\x64\Debug\vcpkg.applocal.log
E:\Bioinformatika\ZavrsniRefGit\VCPP_Sol\HiRGC\x64\Debug\fmtd.dll
E:\Bioinformatika\ZavrsniRefGit\VCPP_Sol\HiRGC\x64\Debug\boost_program_options-vc142-mt-gd-x64-1_73.dll
^E:\Bioinformatika\ZavrsniRefGit\VCPP_Sol\HiRGC\x64\Debug\HiRGC_MyImplementation.exe
E:\Bioinformatika\ZavrsniRefGit\VCPP_Sol\HiRGC\HiRGC_MyImplementation\x64\Debug\vcpkg.applocal.log
E:\Bioinformatika\ZavrsniRefGit\VCPP_Sol\HiRGC\x64\Debug\fmtd.dll
E:\Bioinformatika\ZavrsniRefGit\VCPP_Sol\HiRGC\x64\Debug\boost_program_options-vc142-mt-gd-x64-1_73.dll
^E:\Bioinformatika\ZavrsniRefGit\VCPP_Sol\HiRGC\x64\Debug\HiRGC_MyImplementation.exe
E:\Bioinformatika\ZavrsniRefGit\VCPP_Sol\HiRGC\HiRGC_MyImplementation\x64\Debug\vcpkg.applocal.log
E:\Bioinformatika\ZavrsniRefGit\VCPP_Sol\HiRGC\x64\Debug\fmtd.dll
E:\Bioinformatika\ZavrsniRefGit\VCPP_Sol\HiRGC\x64\Debug\boost_program_options-vc142-mt-gd-x64-1_73.dll
^E:\Bioinformatika\ZavrsniRefGit\VCPP_Sol\HiRGC\x64\Debug\HiRGC_MyImplementation.exe
E:\Bioinformatika\ZavrsniRefGit\VCPP_Sol\HiRGC\HiRGC_MyImplementation\x64\Debug\vcpkg.applocal.log
E:\Bioinformatika\ZavrsniRefGit\VCPP_Sol\HiRGC\x64\Debug\fmtd.dll
E:\Bioinformatika\ZavrsniRefGit\VCPP_Sol\HiRGC\x64\Debug\boost_program_options-vc142-mt-gd-x64-1_73.dll
^E:\Bioinformatika\ZavrsniRefGit\VCPP_Sol\HiRGC\x64\Debug\HiRGC_MyImplementation.exe
E:\Bioinformatika\ZavrsniRefGit\VCPP_Sol\HiRGC\HiRGC_MyImplementation\x64\Debug\vcpkg.applocal.log
E:\Bioinformatika\ZavrsniRefGit\VCPP_Sol\HiRGC\x64\Debug\fmtd.dll
E:\Bioinformatika\ZavrsniRefGit\VCPP_Sol\HiRGC\x64\Debug\boost_program_options-vc142-mt-gd-x64-1_73.dll
^E:\Bioinformatika\ZavrsniRefGit\VCPP_Sol\HiRGC\x64\Debug\HiRGC_MyImplementation.exe
E:\Bioinformatika\ZavrsniRefGit\VCPP_Sol\HiRGC\HiRGC_MyImplementation\x64\Debug\vcpkg.applocal.log
E:\Bioinformatika\ZavrsniRefGit\VCPP_Sol\HiRGC\x64\Debug\fmtd.dll
E:\Bioinformatika\ZavrsniRefGit\VCPP_Sol\HiRGC\x64\Debug\boost_program_options-vc142-mt-gd-x64-1_73.dll
^E:\Bioinformatika\ZavrsniRefGit\VCPP_Sol\HiRGC\x64\Debug\HiRGC_MyImplementation.exe
E:\Bioinformatika\ZavrsniRefGit\VCPP_Sol\HiRGC\HiRGC_MyImplementation\x64\Debug\vcpkg.applocal.log
E:\Bioinformatika\ZavrsniRefGit\VCPP_Sol\HiRGC\x64\Debug\fmtd.dll
E:\Bioinformatika\ZavrsniRefGit\VCPP_Sol\HiRGC\x64\Debug\boost_program_options-vc142-mt-gd-x64-1_73.dll
^E:\Bioinformatika\ZavrsniRefGit\VCPP_Sol\HiRGC\x64\Debug\HiRGC_MyImplementation.exe
E:\Bioinformatika\ZavrsniRefGit\VCPP_Sol\HiRGC\HiRGC_MyImplementation\x64\Debug\vcpkg.applocal.log
E:\Bioinformatika\ZavrsniRefGit\VCPP_Sol\HiRGC\x64\Debug\fmtd.dll
E:\Bioinformatika\ZavrsniRefGit\VCPP_Sol\HiRGC\x64\Debug\boost_program_options-vc142-mt-gd-x64-1_73.dll
