^E:\BIOINFORMATIKA\ZAVRSNIREFGIT\VCPP_SOL\HIRGC\HIRGC_MYIMPLEMENTATION\X64\DEBUG\CHROMOSOME.OBJ|E:\BIOINFORMATIKA\ZAVRSNIREFGIT\VCPP_SOL\HIRGC\HIRGC_MYIMPLEMENTATION\X64\DEBUG\COMPRESSOR.OBJ|E:\BIOINFORMATIKA\ZAVRSNIREFGIT\VCPP_SOL\HIRGC\HIRGC_MYIMPLEMENTATION\X64\DEBUG\DATAHANDLER.OBJ|E:\BIOINFORMATIKA\ZAVRSNIREFGIT\VCPP_SOL\HIRGC\HIRGC_MYIMPLEMENTATION\X64\DEBUG\DECOMPRESSOR.OBJ|E:\BIOINFORMATIKA\ZAVRSNIREFGIT\VCPP_SOL\HIRGC\HIRGC_MYIMPLEMENTATION\X64\DEBUG\MAIN.OBJ|E:\BIOINFORMATIKA\ZAVRSNIREFGIT\VCPP_SOL\HIRGC\HIRGC_MYIMPLEMENTATION\X64\DEBUG\UTIL.OBJ
E:\BIOINFORMATIKA\ZAVRSNIREFGIT\VCPP_SOL\HIRGC\X64\DEBUG\HIRGC_MYIMPLEMENTATION.EXE
E:\BIOINFORMATIKA\ZAVRSNIREFGIT\VCPP_SOL\HIRGC\X64\DEBUG\HIRGC_MYIMPLEMENTATION.ILK
E:\BIOINFORMATIKA\ZAVRSNIREFGIT\VCPP_SOL\HIRGC\X64\DEBUG\HIRGC_MYIMPLEMENTATION.PDB
